wave.vcd
$date
	Tue Aug 12 13:05:25 2025
$end
$version
	QuestaSim Version 2024.3_1
$end
$timescale
	1ns
$end

$scope module tb $end
$var integer 32 ! cycle_count $end
$var reg 1 " clk $end
$var reg 1 # done $end
$var reg 1 $ reset $end
$var reg 1 % start $end

$scope module dut $end
$var wire 1 & clk $end
$var wire 1 ' reset $end
$var wire 1 ( start $end
$var reg 9 ) core_instr [8:0] $end
$var reg 2 * cpu_state [1:0] $end
$var reg 8 + d_addr [7:0] $end
$var reg 8 , d_rdata [7:0] $end
$var reg 8 - d_wdata [7:0] $end
$var reg 1 . d_we $end
$var reg 1 / done $end
$var reg 8 0 ext_data [7:0] $end
$var reg 1 1 ext_pending $end
$var reg 1 2 ext_valid $end
$var reg 9 3 instr_word [8:0] $end
$var reg 8 4 pc [7:0] $end
$var reg 1 5 pc_load $end
$var reg 8 6 pc_target [7:0] $end

$scope module cpu $end
$var wire 1 & clk $end
$var wire 8 7 d_in [7:0] $end
$var wire 8 8 ext_data [7:0] $end
$var wire 1 9 ext_valid $end
$var wire 9 : instr [8:0] $end
$var wire 8 ; pc [7:0] $end
$var wire 1 ' reset $end
$var wire 1 ( start $end
$var reg 4 < alu_op [3:0] $end
$var reg 8 = alu_res [7:0] $end
$var reg 1 > carry_flag $end
$var reg 1 ? carry_flag_c $end
$var reg 8 @ d_addr [7:0] $end
$var reg 8 A d_out [7:0] $end
$var reg 1 B done $end
$var reg 1 C done_r $end
$var reg 1 D ext_latched $end
$var reg 2 E ext_rd [1:0] $end
$var reg 8 F ext_val [7:0] $end
$var reg 3 G imm3 [2:0] $end
$var reg 5 H offset5 [4:0] $end
$var reg 4 I opcode [3:0] $end
$var reg 1 J pc_load $end
$var reg 8 K pc_target [7:0] $end
$var reg 8 L rd_data [7:0] $end
$var reg 2 M rd_field [1:0] $end
$var reg 8 N rf_wdata [7:0] $end
$var reg 1 O rf_we $end
$var reg 8 P rs_data [7:0] $end
$var reg 2 Q rs_field [1:0] $end
$var reg 1 R shift_flag $end
$var reg 1 S shift_flag_c $end
$var reg 2 T state_out [1:0] $end
$var reg 5 U target5 [4:0] $end
$var reg 1 V we $end
$var reg 2 W next_state [1:0] $end
$var reg 2 X state [1:0] $end

$scope module rf $end
$var wire 1 & clk $end
$var wire 2 Y rd_addr [1:0] $end
$var wire 1 Z reg_write $end
$var wire 1 ' reset $end
$var wire 2 [ rs_addr [1:0] $end
$var wire 8 \ write_data [7:0] $end
$var reg 8 ] rd_data [7:0] $end
$var reg 8 ^ rs_data [7:0] $end
$upscope $end

$scope module u_alu $end
$var wire 8 _ A [7:0] $end
$var wire 8 ` B [7:0] $end
$var wire 4 a opcode [3:0] $end
$var reg 1 b carry_flag $end
$var reg 8 c result [7:0] $end
$var reg 1 d shift_flag $end
$upscope $end
$upscope $end

$scope module data_mem_i $end
$var wire 8 e addr [7:0] $end
$var wire 1 & clk $end
$var wire 1 ' reset $end
$var wire 1 f we $end
$var wire 8 g write_data [7:0] $end
$var reg 8 h read_data [7:0] $end
$upscope $end

$scope module im $end
$var wire 8 ; addr [7:0] $end
$var reg 9 i instr [8:0] $end
$upscope $end
$upscope $end
$upscope $end
$enddefinitions $end
#0
$dumpvars
b0 !
0&
1'
0(
0"
0#
1$
0%
0f
b0 e
b0 g
b0 ;
b0 :
x9
bx 8
b0 7
b0 )
b0 *
b0 +
b0 ,
b0 -
0.
0/
bx 0
01
x2
b111011000 3
b0 4
05
b0 6
0Z
b0 Y
b0 [
b0 \
b0 _
b0 `
b0 a
b0 <
b0 =
0>
0?
b0 @
b0 A
0B
0C
0D
bx E
bx F
b0 G
b0 H
b0 I
0J
b0 K
b0 L
b0 M
b0 N
0O
b0 P
b0 Q
0R
0S
b0 T
b0 U
0V
b1 W
b0 X
b0 ]
b0 ^
0b
b0 c
0d
b0 h
b111011000 i
$end
#5
1"
1&
02
09
#10
0"
0&
#15
1"
1&
0$
0'
#20
0"
0&
#25
1"
1&
1%
1(
b0 W
11
b1 X
b111011000 )
b1 4
b1 !
b1 T
b1 *
b1 ;
b111011000 :
b1001 i
b1001 3
b1110 I
b11000 U
b11000 H
b11 M
b11 Y
b1110 <
b1110 a
#30
0"
0&
#35
1"
1&
0%
0(
01
12
b1001 0
b0 X
b10 !
b0 T
b1001 8
19
b0 *
b1 W
#40
0"
0&
#45
1"
1&
1D
b11 E
b1001 F
b1 X
02
b1001 )
b10 4
b11 !
09
b1 T
b1 *
b10 ;
b1001 :
b100011000 i
b100011000 3
b0 I
b1 M
b1001 U
b1001 H
b1 G
b0 W
1O
1Z
b1 Y
b0 <
b0 a
#50
0"
0&
#55
1"
1&
b0 X
b100 !
b0 T
b0 *
0O
b1 W
0Z
#60
0"
0&
#65
1"
1&
b100011000 )
b11 4
b1 X
b101 !
b1 T
b1 *
b11 ;
b100011000 :
b111011000 i
b111011000 3
b1000 I
b11 M
b11000 U
b11000 H
b0 G
b10 W
b11 Y
b1000 <
b1000 a
#70
0"
0&
#75
1"
1&
11
b10 X
b110 !
b10 T
b10 *
b0 W
1O
1Z
#80
0"
0&
#85
1"
1&
b0 X
12
b11011000 0
b111 !
b11011000 8
19
b0 T
b0 *
0O
b1 W
0Z
#90
0"
0&
#95
1"
1&
b111011000 )
b100 4
b11011000 F
b1 X
b1000 !
b1 T
b1 *
b100 ;
b111011000 :
b1000 i
b1000 3
b1110 I
b0 W
b1110 <
b1110 a
#100
0"
0&
#105
1"
1&
01
b1000 0
b0 X
b1001 !
b0 T
b1000 8
b0 *
b1 W
#110
0"
0&
#115
1"
1&
b1000 F
b1 X
02
b1000 )
b101 4
b1010 !
09
b1 T
b1 *
b101 ;
b1000 :
b100011010 i
b100011010 3
b0 I
b1000 U
b1000 H
b1 M
b0 W
1O
1Z
b1 Y
b0 <
b0 a
#120
0"
0&
#125
1"
1&
b0 X
b1011 !
b0 T
b0 *
0O
b1 W
0Z
#130
0"
0&
#135
1"
1&
b100011010 )
b110 4
b1 X
b1100 !
b1 T
b1 *
b110 ;
b100011010 :
b111011000 i
b111011000 3
b1000 I
b11 M
b11010 U
b11010 H
b10 G
b1 Q
b10 W
b1 [
b11 Y
b1000 <
b1000 a
#140
0"
0&
#145
1"
1&
11
b10 X
b1101 !
b10 T
b10 *
b0 W
1O
1Z
#150
0"
0&
#155
1"
1&
b0 X
12
b11011000 0
b1110 !
b11011000 8
19
b0 T
b0 *
0O
b1 W
0Z
#160
0"
0&
#165
1"
1&
b111011000 )
b111 4
b11011000 F
b1 X
b1111 !
b1 T
b1 *
b111 ;
b111011000 :
b1011 i
b1011 3
b1110 I
b11000 U
b11000 H
b0 G
b0 Q
b0 W
b0 [
b1110 <
b1110 a
#170
0"
0&
#175
1"
1&
01
b1011 0
b0 X
b10000 !
b0 T
b1011 8
b0 *
b1 W
#180
0"
0&
#185
1"
1&
b1011 F
b1 X
02
b1011 )
b1000 4
b10001 !
09
b1 T
b1 *
b1000 ;
b1011 :
b100011100 i
b100011100 3
b0 I
b1 M
b1 Q
b1011 U
b1011 H
b11 G
b0 W
1O
1Z
b1 [
b1 Y
b0 <
b0 a
#190
0"
0&
#195
1"
1&
b0 X
b10010 !
b0 T
b0 *
0O
b1 W
0Z
#200
0"
0&
#205
1"
1&
b100011100 )
b1001 4
b1 X
b10011 !
b1 T
b1 *
b1001 ;
b100011100 :
b111011000 i
b111011000 3
b1000 I
b11 M
b10 Q
b11100 U
b11100 H
b100 G
b10 W
b10 [
b11 Y
b1000 <
b1000 a
#210
0"
0&
#215
1"
1&
11
b10 X
b10100 !
b10 T
b10 *
b0 W
1O
1Z
#220
0"
0&
#225
1"
1&
b0 X
12
b11011000 0
b10101 !
b11011000 8
19
b0 T
b0 *
0O
b1 W
0Z
#230
0"
0&
#235
1"
1&
b111011000 )
b1010 4
b11011000 F
b1 X
b10110 !
b1 T
b1 *
b1010 ;
b111011000 :
b1010 i
b1010 3
b1110 I
b11000 U
b11000 H
b0 G
b0 Q
b0 W
b0 [
b1110 <
b1110 a
#240
0"
0&
#245
1"
1&
01
b1010 0
b0 X
b10111 !
b0 T
b1010 8
b0 *
b1 W
#250
0"
0&
#255
1"
1&
b1010 F
b1 X
02
b1010 )
b1011 4
b11000 !
09
b1 T
b1 *
b1011 ;
b1010 :
b100011110 i
b100011110 3
b0 I
b1 M
b1010 U
b1010 H
b10 G
b1 Q
b0 W
1O
1Z
b1 [
b1 Y
b0 <
b0 a
#260
0"
0&
#265
1"
1&
b0 X
b11001 !
b0 T
b0 *
0O
b1 W
0Z
#270
0"
0&
#275
1"
1&
b100011110 )
b1100 4
b1 X
b11010 !
b1 T
b1 *
b1100 ;
b100011110 :
b10100000 i
b10100000 3
b1000 I
b11 M
b11110 U
b11110 H
b110 G
b11 Q
b10 W
b11 [
b11 Y
b1000 <
b1000 a
#280
0"
0&
#285
1"
1&
b10 X
b11011 !
b10 T
b10 *
b0 W
1O
1Z
#290
0"
0&
#295
1"
1&
b0 X
b11100 !
b0 T
b0 *
0O
b1 W
0Z
#300
0"
0&
#305
1"
1&
b10100000 )
b1101 4
b1 X
b11101 !
b1 T
b1 *
b1101 ;
b10100000 :
b101 I
b0 M
b0 U
b0 H
b0 G
b0 Q
b0 W
1O
1Z
b0 [
b0 Y
b101 <
b101 a
#310
0"
0&
#315
1"
1&
b0 X
b11110 !
b0 T
b0 *
0O
b1 W
0Z
#320
0"
0&
#325
1"
1&
b1110 4
b1 X
b11111 !
b1 T
b1 *
b1110 ;
b0 W
1O
1Z
#330
0"
0&
#335
1"
1&
b0 X
b100000 !
b0 T
b0 *
0O
b1 W
0Z
#340
0"
0&
#345
1"
1&
b1111 4
b1 X
b100001 !
b1 T
b1 *
b1111 ;
b0 W
1O
1Z
#350
0"
0&
#355
1"
1&
b0 X
b100010 !
b0 T
b0 *
0O
b1 W
0Z
#360
0"
0&
#365
1"
1&
b10000 4
b1 X
b100011 !
b1 T
b1 *
b10000 ;
b111011000 i
b111011000 3
b0 W
1O
1Z
#370
0"
0&
#375
1"
1&
11
b0 X
b100100 !
b0 T
b0 *
0O
b1 W
0Z
#380
0"
0&
#385
1"
1&
b1 X
12
b11011000 0
b111011000 )
b10001 4
b100101 !
b11011000 8
19
b1 T
b1 *
b10001 ;
b111011000 :
b10000 i
b10000 3
b1110 I
b11000 U
b11000 H
b11 M
b0 W
b11 Y
b1110 <
b1110 a
#390
0"
0&
#395
1"
1&
01
b11011000 F
b10000 0
b0 X
b100110 !
b0 T
b10000 8
b0 *
b1 W
#400
0"
0&
#405
1"
1&
b1 X
b10000 F
02
b10000 )
b10010 4
b100111 !
09
b1 T
b1 *
b10010 ;
b10000 :
b100111000 i
b100111000 3
b0 I
b10000 U
b10000 H
b10 M
b0 W
1O
1Z
b10 Y
b0 <
b0 a
#410
0"
0&
#415
1"
1&
b0 X
b101000 !
b0 T
b0 *
0O
b1 W
0Z
#420
0"
0&
#425
1"
1&
b100111000 )
b10011 4
b1 X
b101001 !
b1 T
b1 *
b10011 ;
b100111000 :
b11000000 i
b11000000 3
b1001 I
b11000 U
b11000 H
b11 M
b10 W
b11 Y
b1001 <
b1001 a
#430
0"
0&
#435
1"
1&
b10 X
b101010 !
b10 T
1V
1.
b10 *
1f
b0 W
#440
0"
0&
#445
1"
1&
b0 X
b101011 !
b0 T
0V
0.
b0 *
0f
b1 W
#450
0"
0&
#455
1"
1&
b11000000 )
b10100 4
b1 X
b101100 !
b1 T
b1 *
b10100 ;
b11000000 :
b100 i
b100 3
b110 I
b0 U
b0 H
b0 M
b0 W
1O
1Z
b0 Y
b110 <
b110 a
#460
0"
0&
#465
1"
1&
b0 X
b101101 !
b0 T
b0 *
0O
b1 W
0Z
#470
0"
0&
#475
1"
1&
b100 )
b10101 4
b1 X
b101110 !
b1 T
b1 *
b10101 ;
b100 :
b10100000 i
b10100000 3
b0 I
b100 U
b100 H
b100 G
b10 Q
b0 W
1O
1Z
b10 [
b0 <
b0 a
#480
0"
0&
#485
1"
1&
b0 X
b101111 !
b0 T
b0 *
0O
b1 W
0Z
#490
0"
0&
#495
1"
1&
b10100000 )
b10110 4
b1 X
b110000 !
b1 T
b1 *
b10110 ;
b10100000 :
b101 I
b0 U
b0 H
b0 G
b0 Q
b0 W
1O
1Z
b0 [
b101 <
b101 a
#500
0"
0&
#505
1"
1&
b0 X
b110001 !
b0 T
b0 *
0O
b1 W
0Z
#510
0"
0&
#515
1"
1&
b10111 4
b1 X
b110010 !
b1 T
b1 *
b10111 ;
b0 W
1O
1Z
#520
0"
0&
#525
1"
1&
b0 X
b110011 !
b0 T
b0 *
0O
b1 W
0Z
#530
0"
0&
#535
1"
1&
b11000 4
b1 X
b110100 !
b1 T
b1 *
b11000 ;
b0 W
1O
1Z
#540
0"
0&
#545
1"
1&
b0 X
b110101 !
b0 T
b0 *
0O
b1 W
0Z
#550
0"
0&
#555
1"
1&
b11001 4
b1 X
b110110 !
b1 T
b1 *
b11001 ;
b111011000 i
b111011000 3
b0 W
1O
1Z
#560
0"
0&
#565
1"
1&
11
b0 X
b110111 !
b0 T
b0 *
0O
b1 W
0Z
#570
0"
0&
#575
1"
1&
b1 X
12
b11011000 0
b111011000 )
b11010 4
b111000 !
b11011000 8
19
b1 T
b1 *
b11010 ;
b111011000 :
b10001 i
b10001 3
b1110 I
b11000 U
b11000 H
b11 M
b0 W
b11 Y
b1110 <
b1110 a
#580
0"
0&
#585
1"
1&
01
b11011000 F
b10001 0
b0 X
b111001 !
b0 T
b10001 8
b0 *
b1 W
#590
0"
0&
#595
1"
1&
b1 X
b10001 F
02
b10001 )
b11011 4
b111010 !
09
b1 T
b1 *
b11011 ;
b10001 :
b100111000 i
b100111000 3
b0 I
b10 M
b10001 U
b10001 H
b1 G
b0 W
1O
1Z
b10 Y
b0 <
b0 a
#600
0"
0&
#605
1"
1&
b0 X
b111011 !
b0 T
b0 *
0O
b1 W
0Z
#610
0"
0&
#615
1"
1&
b100111000 )
b11100 4
b1 X
b111100 !
b1 T
b1 *
b11100 ;
b100111000 :
b111011000 i
b111011000 3
b1001 I
b11 M
b11000 U
b11000 H
b0 G
b10 W
b11 Y
b1001 <
b1001 a
#620
0"
0&
#625
1"
1&
11
b10 X
b111101 !
b10 T
1V
1.
b10 *
1f
b0 W
#630
0"
0&
#635
1"
1&
b0 X
12
b11011000 0
b111110 !
b11011000 8
19
b0 T
0V
0.
b0 *
0f
b1 W
#640
0"
0&
#645
1"
1&
b111011000 )
b11101 4
b11011000 F
b1 X
b111111 !
b1 T
b1 *
b11101 ;
b111011000 :
b1001 i
b1001 3
b1110 I
b0 W
b1110 <
b1110 a
#650
0"
0&
#655
1"
1&
01
b1001 0
b0 X
b1000000 !
b0 T
b1001 8
b0 *
b1 W
#660
0"
0&
#665
1"
1&
b1001 F
b1 X
02
b1001 )
b11110 4
b1000001 !
09
b1 T
b1 *
b11110 ;
b1001 :
b100011000 i
b100011000 3
b0 I
b1 M
b1001 U
b1001 H
b1 G
b0 W
1O
1Z
b1 Y
b0 <
b0 a
#670
0"
0&
#675
1"
1&
b0 X
b1000010 !
b0 T
b0 *
0O
b1 W
0Z
#680
0"
0&
#685
1"
1&
b100011000 )
b11111 4
b1 X
b1000011 !
b1 T
b1 *
b11111 ;
b100011000 :
b111001000 i
b111001000 3
b1000 I
b11 M
b11000 U
b11000 H
b0 G
b10 W
b11 Y
b1000 <
b1000 a
#690
0"
0&
#695
1"
1&
11
b10 X
b1000100 !
b10 T
b10 *
b0 W
1O
1Z
#700
0"
0&
#705
1"
1&
b0 X
12
b11001000 0
b1000101 !
b11001000 8
19
b0 T
b0 *
0O
b1 W
0Z
#710
0"
0&
#715
1"
1&
b111001000 )
b100000 4
b11001000 F
b1 X
b1000110 !
b1 T
b1 *
b100000 ;
b111001000 :
b1111100 i
b1111100 3
b1110 I
b1000 U
b1000 H
b1 M
b0 W
b1 Y
b1110 <
b1110 a
#720
0"
0&
#725
1"
1&
01
b1111100 0
b0 X
b1 E
b1000111 !
b0 T
b1111100 8
b0 *
b1 W
#730
0"
0&
#735
1"
1&
b1111100 F
b1 X
02
b1111100 )
b100001 4
b1001000 !
09
b1 T
b1 *
b100001 ;
b1111100 :
b1000010 i
b1000010 3
b11 I
b11 M
b11100 U
b11100 H
b100 G
b10 Q
b0 W
1O
1Z
b10 [
b11 Y
b11 <
b11 a
#740
0"
0&
#745
1"
1&
b0 X
b1001001 !
b0 T
b0 *
0O
b1 W
0Z
#750
0"
0&
#755
1"
1&
b1000010 )
b100010 4
b1 X
b1001010 !
b1 T
b1 *
b100010 ;
b1000010 :
b10100000 i
b10100000 3
b10 I
b0 M
b10 U
b10 H
b10 G
b1 Q
b0 W
1O
1Z
b1 [
b0 Y
b10 <
b10 a
#760
0"
0&
#765
1"
1&
b0 X
b1001011 !
b0 T
b0 *
0O
b1 W
0Z
#770
0"
0&
#775
1"
1&
b10100000 )
b100011 4
b1 X
b1001100 !
b1 T
b1 *
b100011 ;
b10100000 :
b101 I
b0 U
b0 H
b0 G
b0 Q
b0 W
1O
1Z
b0 [
b101 <
b101 a
#780
0"
0&
#785
1"
1&
b0 X
b1001101 !
b0 T
b0 *
0O
b1 W
0Z
#790
0"
0&
#795
1"
1&
b100100 4
b1 X
b1001110 !
b1 T
b1 *
b100100 ;
b111011000 i
b111011000 3
b0 W
1O
1Z
#800
0"
0&
#805
1"
1&
11
b0 X
b1001111 !
b0 T
b0 *
0O
b1 W
0Z
#810
0"
0&
#815
1"
1&
b1 X
12
b11011000 0
b111011000 )
b100101 4
b1010000 !
b11011000 8
19
b1 T
b1 *
b100101 ;
b111011000 :
b10010 i
b10010 3
b1110 I
b11000 U
b11000 H
b11 M
b0 W
b11 Y
b1110 <
b1110 a
#820
0"
0&
#825
1"
1&
01
b11 E
b11011000 F
b10010 0
b0 X
b1010001 !
b0 T
b10010 8
b0 *
b1 W
#830
0"
0&
#835
1"
1&
b1 X
b10010 F
02
b10010 )
b100110 4
b1010010 !
09
b1 T
b1 *
b100110 ;
b10010 :
b100111000 i
b100111000 3
b0 I
b10 M
b10010 U
b10010 H
b10 G
b1 Q
b0 W
1O
1Z
b1 [
b10 Y
b0 <
b0 a
#840
0"
0&
#845
1"
1&
b0 X
b1010011 !
b0 T
b0 *
0O
b1 W
0Z
#850
0"
0&
#855
1"
1&
b100111000 )
b100111 4
b1 X
b1010100 !
b1 T
b1 *
b100111 ;
b100111000 :
b11000000 i
b11000000 3
b1001 I
b11 M
b11000 U
b11000 H
b0 G
b0 Q
b10 W
b0 [
b11 Y
b1001 <
b1001 a
#860
0"
0&
#865
1"
1&
b10 X
b1010101 !
b10 T
1V
1.
b10 *
1f
b0 W
#870
0"
0&
#875
1"
1&
b0 X
b1010110 !
b0 T
0V
0.
b0 *
0f
b1 W
#880
0"
0&
#885
1"
1&
b11000000 )
b101000 4
b1 X
b1010111 !
b1 T
b1 *
b101000 ;
b11000000 :
b100 i
b100 3
b110 I
b0 U
b0 H
b0 M
b0 W
1O
1Z
b0 Y
b110 <
b110 a
#890
0"
0&
#895
1"
1&
b0 X
b1011000 !
b0 T
b0 *
0O
b1 W
0Z
#900
0"
0&
#905
1"
1&
b100 )
b101001 4
b1 X
b1011001 !
b1 T
b1 *
b101001 ;
b100 :
b111001000 i
b111001000 3
b0 I
b100 U
b100 H
b100 G
b10 Q
b0 W
1O
1Z
b10 [
b0 <
b0 a
#910
0"
0&
#915
1"
1&
11
b0 X
b1011010 !
b0 T
b0 *
0O
b1 W
0Z
#920
0"
0&
#925
1"
1&
b1 X
12
b11001000 0
b111001000 )
b101010 4
b1011011 !
b11001000 8
19
b1 T
b1 *
b101010 ;
b111001000 :
b1111100 i
b1111100 3
b1110 I
b1 M
b1000 U
b1000 H
b0 G
b0 Q
b0 W
b0 [
b1 Y
b1110 <
b1110 a
#930
0"
0&
#935
1"
1&
01
b1 E
b11001000 F
b1111100 0
b0 X
b1011100 !
b0 T
b1111100 8
b0 *
b1 W
#940
0"
0&
#945
1"
1&
b1 X
b1111100 F
02
b1111100 )
b101011 4
b1011101 !
09
b1 T
b1 *
b101011 ;
b1111100 :
b1000010 i
b1000010 3
b11 I
b11 M
b11100 U
b11100 H
b100 G
b10 Q
b0 W
1O
1Z
b10 [
b11 Y
b11 <
b11 a
#950
0"
0&
#955
1"
1&
b0 X
b1011110 !
b0 T
b0 *
0O
b1 W
0Z
#960
0"
0&
#965
1"
1&
b1000010 )
b101100 4
b1 X
b1011111 !
b1 T
b1 *
b101100 ;
b1000010 :
b10100000 i
b10100000 3
b10 I
b0 M
b10 U
b10 H
b10 G
b1 Q
b0 W
1O
1Z
b1 [
b0 Y
b10 <
b10 a
#970
0"
0&
#975
1"
1&
b0 X
b1100000 !
b0 T
b0 *
0O
b1 W
0Z
#980
0"
0&
#985
1"
1&
b10100000 )
b101101 4
b1 X
b1100001 !
b1 T
b1 *
b101101 ;
b10100000 :
b101 I
b0 U
b0 H
b0 G
b0 Q
b0 W
1O
1Z
b0 [
b101 <
b101 a
#990
0"
0&
#995
1"
1&
b0 X
b1100010 !
b0 T
b0 *
0O
b1 W
0Z
#1000
0"
0&
#1005
1"
1&
b101110 4
b1 X
b1100011 !
b1 T
b1 *
b101110 ;
b111011000 i
b111011000 3
b0 W
1O
1Z
#1010
0"
0&
#1015
1"
1&
11
b0 X
b1100100 !
b0 T
b0 *
0O
b1 W
0Z
#1020
0"
0&
#1025
1"
1&
b1 X
12
b11011000 0
b111011000 )
b101111 4
b1100101 !
b11011000 8
19
b1 T
b1 *
b101111 ;
b111011000 :
b10011 i
b10011 3
b1110 I
b11000 U
b11000 H
b11 M
b0 W
b11 Y
b1110 <
b1110 a
#1030
0"
0&
#1035
1"
1&
01
b11 E
b11011000 F
b10011 0
b0 X
b1100110 !
b0 T
b10011 8
b0 *
b1 W
#1040
0"
0&
#1045
1"
1&
b1 X
b10011 F
02
b10011 )
b110000 4
b1100111 !
09
b1 T
b1 *
b110000 ;
b10011 :
b100111000 i
b100111000 3
b0 I
b10 M
b1 Q
b10011 U
b10011 H
b11 G
b0 W
1O
1Z
b1 [
b10 Y
b0 <
b0 a
#1050
0"
0&
#1055
1"
1&
b0 X
b1101000 !
b0 T
b0 *
0O
b1 W
0Z
#1060
0"
0&
#1065
1"
1&
b100111000 )
b110001 4
b1 X
b1101001 !
b1 T
b1 *
b110001 ;
b100111000 :
b111011000 i
b111011000 3
b1001 I
b11 M
b0 Q
b11000 U
b11000 H
b0 G
b10 W
b0 [
b11 Y
b1001 <
b1001 a
#1070
0"
0&
#1075
1"
1&
11
b10 X
b1101010 !
b10 T
1V
1.
b10 *
1f
b0 W
#1080
0"
0&
#1085
1"
1&
b0 X
12
b11011000 0
b1101011 !
b11011000 8
19
b0 T
0V
0.
b0 *
0f
b1 W
#1090
0"
0&
#1095
1"
1&
b111011000 )
b110010 4
b11011000 F
b1 X
b1101100 !
b1 T
b1 *
b110010 ;
b111011000 :
b10010 i
b10010 3
b1110 I
b0 W
b1110 <
b1110 a
#1100
0"
0&
#1105
1"
1&
01
b10010 0
b0 X
b1101101 !
b0 T
b10010 8
b0 *
b1 W
#1110
0"
0&
#1115
1"
1&
b10010 F
b1 X
02
b10010 )
b110011 4
b1101110 !
09
b1 T
b1 *
b110011 ;
b10010 :
b100011000 i
b100011000 3
b0 I
b10 M
b10010 U
b10010 H
b10 G
b1 Q
b0 W
1O
1Z
b1 [
b10 Y
b0 <
b0 a
#1120
0"
0&
#1125
1"
1&
b0 X
b1101111 !
b0 T
b0 *
0O
b1 W
0Z
#1130
0"
0&
#1135
1"
1&
b100011000 )
b110100 4
b1 X
b1110000 !
b1 T
b1 *
b110100 ;
b100011000 :
b111011000 i
b111011000 3
b1000 I
b11 M
b11000 U
b11000 H
b0 G
b0 Q
b10 W
b0 [
b11 Y
b1000 <
b1000 a
#1140
0"
0&
#1145
1"
1&
11
b10 X
b1110001 !
b10 T
b10 *
b0 W
1O
1Z
#1150
0"
0&
#1155
1"
1&
b0 X
12
b11011000 0
b1110010 !
b11011000 8
19
b0 T
b0 *
0O
b1 W
0Z
#1160
0"
0&
#1165
1"
1&
b111011000 )
b110101 4
b11011000 F
b1 X
b1110011 !
b1 T
b1 *
b110101 ;
b111011000 :
b10011 i
b10011 3
b1110 I
b0 W
b1110 <
b1110 a
#1170
0"
0&
#1175
1"
1&
01
b10011 0
b0 X
b1110100 !
b0 T
b10011 8
b0 *
b1 W
#1180
0"
0&
#1185
1"
1&
b10011 F
b1 X
02
b10011 )
b110110 4
b1110101 !
09
b1 T
b1 *
b110110 ;
b10011 :
b100011010 i
b100011010 3
b0 I
b10 M
b1 Q
b10011 U
b10011 H
b11 G
b0 W
1O
1Z
b1 [
b10 Y
b0 <
b0 a
#1190
0"
0&
#1195
1"
1&
b0 X
b1110110 !
b0 T
b0 *
0O
b1 W
0Z
#1200
0"
0&
#1205
1"
1&
b100011010 )
b110111 4
b1 X
b1110111 !
b1 T
b1 *
b110111 ;
b100011010 :
b100010 i
b100010 3
b1000 I
b11 M
b11010 U
b11010 H
b10 G
b10 W
b11 Y
b1000 <
b1000 a
#1210
0"
0&
#1215
1"
1&
b10 X
b1111000 !
b10 T
b10 *
b0 W
1O
1Z
#1220
0"
0&
#1225
1"
1&
b0 X
b1111001 !
b0 T
b0 *
0O
b1 W
0Z
#1230
0"
0&
#1235
1"
1&
b100010 )
b111000 4
b1 X
b1111010 !
b1 T
b1 *
b111000 ;
b100010 :
b111011000 i
b111011000 3
b1 I
b10 U
b10 H
b0 M
b0 W
1O
1Z
b0 Y
b1 <
b1 a
#1240
0"
0&
#1245
1"
1&
11
b0 X
b1111011 !
b0 T
b0 *
0O
b1 W
0Z
#1250
0"
0&
#1255
1"
1&
b1 X
12
b11011000 0
b111011000 )
b111001 4
b1111100 !
b11011000 8
19
b1 T
b1 *
b111001 ;
b111011000 :
b10100 i
b10100 3
b1110 I
b11 M
b11000 U
b11000 H
b0 G
b0 Q
b0 W
b0 [
b11 Y
b1110 <
b1110 a
#1260
0"
0&
#1265
1"
1&
01
b11011000 F
b10100 0
b0 X
b1111101 !
b0 T
b10100 8
b0 *
b1 W
#1270
0"
0&
#1275
1"
1&
b1 X
b10100 F
02
b10100 )
b111010 4
b1111110 !
09
b1 T
b1 *
b111010 ;
b10100 :
b100111000 i
b100111000 3
b0 I
b10 M
b10100 U
b10100 H
b100 G
b10 Q
b0 W
1O
1Z
b10 [
b10 Y
b0 <
b0 a
#1280
0"
0&
#1285
1"
1&
b0 X
b1111111 !
b0 T
b0 *
0O
b1 W
0Z
#1290
0"
0&
#1295
1"
1&
b100111000 )
b111011 4
b1 X
b10000000 !
b1 T
b1 *
b111011 ;
b100111000 :
b111011000 i
b111011000 3
b1001 I
b11 M
b11000 U
b11000 H
b0 G
b0 Q
b10 W
b0 [
b11 Y
b1001 <
b1001 a
#1300
0"
0&
#1305
1"
1&
11
b10 X
b10000001 !
b10 T
1V
1.
b10 *
1f
b0 W
#1310
0"
0&
#1315
1"
1&
b0 X
12
b11011000 0
b10000010 !
b11011000 8
19
b0 T
0V
0.
b0 *
0f
b1 W
#1320
0"
0&
#1325
1"
1&
b111011000 )
b111100 4
b11011000 F
b1 X
b10000011 !
b1 T
b1 *
b111100 ;
b111011000 :
b1000 i
b1000 3
b1110 I
b0 W
b1110 <
b1110 a
#1330
0"
0&
#1335
1"
1&
01
b1000 0
b0 X
b10000100 !
b0 T
b1000 8
b0 *
b1 W
#1340
0"
0&
#1345
1"
1&
b1000 F
b1 X
02
b1000 )
b111101 4
b10000101 !
09
b1 T
b1 *
b111101 ;
b1000 :
b100011000 i
b100011000 3
b0 I
b1000 U
b1000 H
b1 M
b0 W
1O
1Z
b1 Y
b0 <
b0 a
#1350
0"
0&
#1355
1"
1&
b0 X
b10000110 !
b0 T
b0 *
0O
b1 W
0Z
#1360
0"
0&
#1365
1"
1&
b100011000 )
b111110 4
b1 X
b10000111 !
b1 T
b1 *
b111110 ;
b100011000 :
b111011000 i
b111011000 3
b1000 I
b11000 U
b11000 H
b11 M
b10 W
b11 Y
b1000 <
b1000 a
#1370
0"
0&
#1375
1"
1&
11
b10 X
b10001000 !
b10 T
b10 *
b0 W
1O
1Z
#1380
0"
0&
#1385
1"
1&
b0 X
12
b11011000 0
b10001001 !
b11011000 8
19
b0 T
b0 *
0O
b1 W
0Z
#1390
0"
0&
#1395
1"
1&
b111011000 )
b111111 4
b11011000 F
b1 X
b10001010 !
b1 T
b1 *
b111111 ;
b111011000 :
b1001 i
b1001 3
b1110 I
b0 W
b1110 <
b1110 a
#1400
0"
0&
#1405
1"
1&
01
b1001 0
b0 X
b10001011 !
b0 T
b1001 8
b0 *
b1 W
#1410
0"
0&
#1415
1"
1&
b1001 F
b1 X
02
b1001 )
b1000000 4
b10001100 !
09
b1 T
b1 *
b1000000 ;
b1001 :
b100011010 i
b100011010 3
b0 I
b1 M
b1001 U
b1001 H
b1 G
b0 W
1O
1Z
b1 Y
b0 <
b0 a
#1420
0"
0&
#1425
1"
1&
b0 X
b10001101 !
b0 T
b0 *
0O
b1 W
0Z
#1430
0"
0&
#1435
1"
1&
b100011010 )
b1000001 4
b1 X
b10001110 !
b1 T
b1 *
b1000001 ;
b100011010 :
b11010011 i
b11010011 3
b1000 I
b11 M
b1 Q
b11010 U
b11010 H
b10 G
b10 W
b1 [
b11 Y
b1000 <
b1000 a
#1440
0"
0&
#1445
1"
1&
b10 X
b10001111 !
b10 T
b10 *
b0 W
1O
1Z
#1450
0"
0&
#1455
1"
1&
b0 X
b10010000 !
b0 T
b0 *
0O
b1 W
0Z
#1460
0"
0&
